Introduction to vosonSML • vosonSML
…
Semantic Network

In the Twitter semantic network, nodes represent entities extracted from the tweet text: common words, hashtags and usernames. Edges reflect co-occurrence i.e. there is an edge between entities i and j if they both occurred in the same tweet.

semanticNetwork <- twitterData %>% Create("semantic",
                                          removeTermsOrHashtags = c("#auspol", "auspol", "australia"),
                                          termFreq = 5)
semanticGraph <- semanticNetwork %>% Graph(writeToFile = TRUE, directed = FALSE)

Create("semantic") returns a named list containing two dataframes named “nodes” and “edges”:

> semanticNetwork
$nodes
# A tibble: 799 x 1
   value 
   <fct> 
 1 just  
 2 one   
 3 fire  
 4 going 
 5 still 
 6 hard  
 7 trying
 8 since 
 9 try   
10 sick  
# … with 789 more rows

$edges
# A tibble: 10,990 x 3
   from        to                           weight
   <fct>       <fct>                         <int>
 1 #auspol2020 #australianbushfiredisaster       2
 2 #auspol2020 government                        2
 3 #auspol2020 fire                              4
 4 #auspol2020 australian                        2
 5 #auspol2020 bushfire                          2
 6 #auspol2020 fires                             4
 7 #auspol2020 #australiafires                   1
 8 #auspol2020 #australianbushfiresdisaster      1
 9 #auspol2020 #australia                        4
10 #auspol2020 bushfires                         2
# … with 10,980 more rows
…
